{
  "version": 1,
  "name": "Shucang Catalog",
  "descrption": "Shucang: a Chinese bookshelf.",
  "home": {
    "get": "http://www.shucang.org"
  },
  "opds": {
    "root": "http://www.shucang.org/s/index.php",
    "search": "http://www.shucang.org/s/doclist.php?skey={searchTerms}"
  }
}
